<?xml version="1.0" encoding="UTF-8" standalone="no"?>
<svg
   xmlns:dc="http://purl.org/dc/elements/1.1/"
   xmlns:cc="http://creativecommons.org/ns#"
   xmlns:rdf="http://www.w3.org/1999/02/22-rdf-syntax-ns#"
   xmlns:svg="http://www.w3.org/2000/svg"
   xmlns="http://www.w3.org/2000/svg"
   width="12"
   height="12"
   viewBox="0 0 12 12"
   version="1.1"
   id="svg12">
  <metadata
     id="metadata16">
    <rdf:RDF>
      <cc:Work
         rdf:about="">
        <dc:format>image/svg+xml</dc:format>
        <dc:type
           rdf:resource="http://purl.org/dc/dcmitype/StillImage" />
        <dc:title>road_round [#607]</dc:title>
      </cc:Work>
    </rdf:RDF>
  </metadata>
  <!-- Generator: Sketch 3.8.1 (29687) - http://www.bohemiancoding.com/sketch -->
  <title
     id="title2">road_round [#607]</title>
  <desc
     id="desc4">Created with Sketch.</desc>
  <defs
     id="defs6" />
  <g
     id="Page-1"
     transform="scale(1,0.6)"
     style="fill:none;fill-rule:evenodd;stroke:none;stroke-width:1">
    <g
       id="Dribbble-Dark-Preview"
       transform="translate(-104,-5519)"
       style="fill:#ffffff">
      <g
         id="icons"
         transform="translate(56,160)">
        <path
           d="m 57,5377 c 0.552,0 1,-0.448 1,-1 v -14 c 0,-0.552 -0.448,-1 -1,-1 h -2 v 3 c 0,0.552 -0.448,1 -1,1 -0.552,0 -1,-0.448 -1,-1 v -3 h -2 c -0.552,0 -1,0.448 -1,1 v 14 c 0,0.552 0.448,1 1,1 h 2 v -3 c 0,-0.552 0.448,-1 1,-1 0.552,0 1,0.448 1,1 v 3 z m 1,2 h -8 c -1.105,0 -2,-0.895 -2,-2 v -16 c 0,-1.105 0.895,-2 2,-2 h 8 c 1.105,0 2,0.895 2,2 v 16 c 0,1.105 -0.895,2 -2,2 z m -5,-9 v -2 c 0,-0.552 0.448,-1 1,-1 0.552,0 1,0.448 1,1 v 2 c 0,0.552 -0.448,1 -1,1 -0.552,0 -1,-0.448 -1,-1 z"
           id="road_round-[#607]" />
      </g>
    </g>
  </g>
</svg>
